…
``` r
# total number of homicides

homicides_df |>
  group_by(city) |> 
  summarise(count = n())
```

    ## # A tibble: 50 × 2
    ##    city        count
    ##    <chr>       <int>
    ##  1 Albuquerque   378
    ##  2 Atlanta       973
    ##  3 Baltimore    2827
    ##  4 Baton Rouge   424
    ##  5 Birmingham    800
    ##  6 Boston        614
    ##  7 Buffalo       521
    ##  8 Charlotte     687
    ##  9 Chicago      5535
    ## 10 Cincinnati    694
    ## # ℹ 40 more rows

``` r
# number of unsolved homicides

homicides_df |>
  filter(disposition %in% c("Closed without arrest", "Open/No arrest")) |> 
  group_by(city) |> 
  summarise(unsolved_count = n())
```

    ## # A tibble: 50 × 2
    ##    city        unsolved_count
    ##    <chr>                <int>
    ##  1 Albuquerque            146
    ##  2 Atlanta                373
    ##  3 Baltimore             1825
    ##  4 Baton Rouge            196
    ##  5 Birmingham             347
    ##  6 Boston                 310
    ##  7 Buffalo                319
    ##  8 Charlotte              206
    ##  9 Chicago               4073
    ## 10 Cincinnati             309
    ## # ℹ 40 more rows
…
